<svg width="120" height="120" viewBox="0 0 110 110" fill="none" xmlns="http://www.w3.org/2000/svg">
<g clip-path="url(#clip0)">
<rect width="400" height="5023" transform="translate(-145 -1908)" fill="#FFFFFF"/>
<rect width="110" height="110" rx="55" fill="#3878F4" fill-opacity="0.08"/>
<rect x="12" y="12" width="86" height="86" rx="43" stroke="#3878F4" stroke-opacity="0.45" stroke-width="2"/>
<path d="M42.6131 57.871H50.355C50.7824 57.871 51.1292 57.525 51.1292 57.0968V56.3226H53.2691L56.2025 57.7897C56.3093 57.8432 56.4285 57.871 56.5485 57.871H65.8389C67.1194 57.871 68.1614 56.829 68.1614 55.5484C68.1614 54.9515 67.9284 54.4119 67.5576 54.0001C67.9292 53.5882 68.1614 53.0486 68.1614 52.4517C68.1614 51.8548 67.9284 51.3152 67.5576 50.9033C67.9292 50.4914 68.1614 49.9518 68.1614 49.3549C68.1614 48.758 67.9284 48.2184 67.5576 47.8065C67.9292 47.3946 68.1614 46.855 68.1614 46.2581C68.1614 44.9776 67.1194 43.9355 65.8389 43.9355H60.4195V39.2904C60.4195 37.5825 59.0306 36.1936 57.3227 36.1936H56.5485C56.1212 36.1936 55.7744 36.5397 55.7744 36.9678V41.2924L53.1313 43.9355H51.1292V43.1613C51.1292 42.7332 50.7824 42.3872 50.355 42.3872H42.6131C42.1857 42.3872 41.8389 42.7332 41.8389 43.1613V57.0968C41.8389 57.525 42.1857 57.871 42.6131 57.871ZM53.4518 45.4839C53.6569 45.4839 53.8544 45.4026 53.9991 45.2571L57.0959 42.1603C57.2414 42.0155 57.3227 41.8189 57.3227 41.613V37.742C58.1767 37.742 58.8711 38.4364 58.8711 39.2904V44.7097C58.8711 45.1379 59.218 45.4839 59.6453 45.4839H65.8389C66.2654 45.4839 66.6131 45.8308 66.6131 46.2581C66.6131 46.6855 66.2654 47.0323 65.8389 47.0323H60.4195V48.5807H65.8389C66.2654 48.5807 66.6131 48.9275 66.6131 49.3549C66.6131 49.7822 66.2654 50.1291 65.8389 50.1291H60.4195V51.6775H65.8389C66.2654 51.6775 66.6131 52.0243 66.6131 52.4517C66.6131 52.879 66.2654 53.2259 65.8389 53.2259H60.4195V54.7743H65.8389C66.2654 54.7743 66.6131 55.1211 66.6131 55.5484C66.6131 55.9758 66.2654 56.3226 65.8389 56.3226H56.7313L53.7978 54.8555C53.691 54.8021 53.5718 54.7743 53.4518 54.7743H51.1292V45.4839H53.4518ZM43.3873 43.9355H49.5808V56.3226H43.3873V43.9355Z" fill="#3878F4"/>
<path d="M55.0001 64.8387C55.854 64.8387 56.5485 65.5332 56.5485 66.3871H58.0969C58.0969 64.9479 57.1059 63.7463 55.7743 63.4003V61.7419H54.2259V63.4003C52.8943 63.7463 51.9033 64.9479 51.9033 66.3871C51.9033 68.095 53.2922 69.4839 55.0001 69.4839C55.854 69.4839 56.5485 70.1783 56.5485 71.0323C56.5485 71.8862 55.854 72.5807 55.0001 72.5807C54.1462 72.5807 53.4517 71.8862 53.4517 71.0323H51.9033C51.9033 72.4715 52.8943 73.673 54.2259 74.0191V75.6774H55.7743V74.0191C57.1059 73.673 58.0969 72.4715 58.0969 71.0323C58.0969 69.3244 56.708 67.9355 55.0001 67.9355C54.1462 67.9355 53.4517 67.241 53.4517 66.3871C53.4517 65.5332 54.1462 64.8387 55.0001 64.8387Z" fill="#3878F4"/>
<path d="M69.7101 64.8387C70.564 64.8387 71.2584 65.5332 71.2584 66.3871H72.8068C72.8068 64.9479 71.8159 63.7463 70.4842 63.4003V61.7419H68.9359V63.4003C67.6042 63.7463 66.6133 64.9479 66.6133 66.3871C66.6133 68.095 68.0022 69.4839 69.7101 69.4839C70.564 69.4839 71.2584 70.1783 71.2584 71.0323C71.2584 71.8862 70.564 72.5807 69.7101 72.5807C68.8561 72.5807 68.1617 71.8862 68.1617 71.0323H66.6133C66.6133 72.4715 67.6042 73.673 68.9359 74.0191V75.6774H70.4842V74.0191C71.8159 73.673 72.8068 72.4715 72.8068 71.0323C72.8068 69.3244 71.4179 67.9355 69.7101 67.9355C68.8561 67.9355 68.1617 67.241 68.1617 66.3871C68.1617 65.5332 68.8561 64.8387 69.7101 64.8387Z" fill="#3878F4"/>
<path d="M69.7097 59.4194C66.8181 59.4194 64.0937 60.7859 62.3479 63.0465C60.6477 60.8455 57.9899 59.4194 55 59.4194C52.0093 59.4194 49.3523 60.8455 47.6514 63.0465C45.9055 60.7859 43.1812 59.4194 40.2903 59.4194C35.1675 59.4194 31 63.5869 31 68.7098C31 73.8326 35.1675 78.0001 40.2903 78.0001C43.1812 78.0001 45.9055 76.6336 47.6514 74.3722C49.3523 76.574 52.0093 78.0001 55 78.0001C57.9923 78.0001 60.6516 76.5717 62.3517 74.3676C64.096 76.6329 66.8003 78.0001 69.7097 78.0001C74.8325 78.0001 79 73.8326 79 68.7098C79 63.5869 74.8325 59.4194 69.7097 59.4194ZM40.2903 76.4517C36.0214 76.4517 32.5484 72.9787 32.5484 68.7098C32.5484 64.4409 36.0214 60.9678 40.2903 60.9678C42.8908 60.9678 45.3203 62.3041 46.7463 64.4641C46.0883 65.7384 45.7097 67.1792 45.7097 68.7098C45.7097 70.2396 46.0883 71.6811 46.7455 72.9547C45.3203 75.1154 42.8908 76.4517 40.2903 76.4517ZM55 76.4517C50.7311 76.4517 47.2581 72.9787 47.2581 68.7098C47.2581 64.4409 50.7311 60.9678 55 60.9678C59.2689 60.9678 62.7419 64.4409 62.7419 68.7098C62.7419 72.9787 59.2689 76.4517 55 76.4517ZM69.7097 76.4517C67.0921 76.4517 64.6805 75.1193 63.2544 72.9547C63.9117 71.6803 64.2903 70.2396 64.2903 68.7098C64.2903 67.1799 63.9117 65.7384 63.2537 64.4641C64.6797 62.3041 67.1084 60.9678 69.7097 60.9678C73.9786 60.9678 77.4516 64.4409 77.4516 68.7098C77.4516 72.9787 73.9786 76.4517 69.7097 76.4517Z" fill="#3878F4"/>
<path d="M40.2901 64.8387C41.1441 64.8387 41.8385 65.5332 41.8385 66.3871H43.3869C43.3869 64.9479 42.3959 63.7463 41.0643 63.4003V61.7419H39.5159V63.4003C38.1843 63.7463 37.1934 64.9479 37.1934 66.3871C37.1934 68.095 38.5823 69.4839 40.2901 69.4839C41.1441 69.4839 41.8385 70.1783 41.8385 71.0323C41.8385 71.8862 41.1441 72.5807 40.2901 72.5807C39.4362 72.5807 38.7417 71.8862 38.7417 71.0323H37.1934C37.1934 72.4715 38.1843 73.673 39.5159 74.0191V75.6774H41.0643V74.0191C42.3959 73.673 43.3869 72.4715 43.3869 71.0323C43.3869 69.3244 41.998 67.9355 40.2901 67.9355C39.4362 67.9355 38.7417 67.241 38.7417 66.3871C38.7417 65.5332 39.4362 64.8387 40.2901 64.8387Z" fill="#3878F4"/>
<path d="M56.5488 30H58.0972V33.871H56.5488V30Z" fill="#3878F4"/>
<path d="M59.8691 34.1003L62.9661 31.0035L64.0609 32.0984L60.964 35.1952L59.8691 34.1003Z" fill="#3878F4"/>
<path d="M50.5791 32.0986L51.6739 31.0037L54.7707 34.1007L53.6758 35.1956L50.5791 32.0986Z" fill="#3878F4"/>
</g>
<defs>
<clipPath id="clip0">
<rect width="400" height="5023" fill="#FCFCFC" transform="translate(-145 -1908)"/>
</clipPath>
</defs>
</svg>
